%YAML 1.1
%TAG !u! tag:unity3d.com,2011:
--- !u!114 &11400000
MonoBehaviour:
  m_ObjectHideFlags: 0
  m_PrefabParentObject: {fileID: 0}
  m_PrefabInternal: {fileID: 0}
  m_GameObject: {fileID: 0}
  m_Enabled: 1
  m_EditorHideFlags: 0
  m_Script: {fileID: 11500000, guid: 7d474159daeb3da4d9dcea6274b036e9, type: 3}
  m_Name: TotemList
  m_EditorClassIdentifier: 
  heads:
  - {fileID: 193316, guid: 9efb004985add464ab37d4e0f975e0ac, type: 2}
  - {fileID: 131504, guid: 1bbc33d8ae1a8be4b91fedebc128057e, type: 2}
  - {fileID: 110396, guid: 089488eb938346c4c99c02590a3a8754, type: 2}
  bodies:
  - {fileID: 119204, guid: 974c61c8c1555f944b4a150c7635d666, type: 2}
  - {fileID: 184032, guid: 01312e76fea45e7498df4440cfc88a5f, type: 2}
  - {fileID: 118464, guid: fc0743e72d36c5f4ba45d455f1e92886, type: 2}
  feet:
  - {fileID: 143470, guid: 0e70a16bc7770d94b93347b8ac2afe33, type: 2}
  - {fileID: 102892, guid: cec3544d89f3a524aaf76793b3908ce7, type: 2}
  - {fileID: 133638, guid: edf93a7c75875b44dbcff8e5a2b47a94, type: 2}
