%YAML 1.1
%TAG !u! tag:unity3d.com,2011:
--- !u!1045 &1
EditorBuildSettings:
  m_ObjectHideFlags: 0
  serializedVersion: 2
  m_Scenes:
  - enabled: 1
    path: Assets/scenes/SplashScreen.unity
  - enabled: 0
    path: Assets/scenes/TestScene.unity
  - enabled: 0
    path: Assets/scenes/TestSceneTimerUI.unity
  - enabled: 1
    path: Assets/scenes/MaskScene.unity
  - enabled: 1
    path: Assets/scenes/MainScene.unity
  - enabled: 1
    path: Assets/scenes/GameOver.unity
  - enabled: 0
    path: Assets/scenes/TestSceneTimerUI.unity
  - enabled: 1
    path: Assets/scenes/CreditScene.unity
